<?xml version="1.0" encoding="iso-8859-1"?>
<!-- Generator: Adobe Illustrator 20.1.0, SVG Export Plug-In . SVG Version: 6.00 Build 0)  -->
<svg version="1.1" id="Layer_1" xmlns="http://www.w3.org/2000/svg" xmlns:xlink="http://www.w3.org/1999/xlink" x="0px" y="0px"
	 width="126.785px" height="126.781px" viewBox="0 0 126.785 126.781" enable-background="new 0 0 126.785 126.781"
	 xml:space="preserve">
<path fill="#44444D" d="M31.401,7.98c-3.157,1.823-4.239,5.86-2.416,9.018c1.823,3.157,5.86,4.239,9.017,2.416
	c3.157-1.823,4.239-5.86,2.416-9.017C38.595,7.24,34.558,6.158,31.401,7.98"/>
<path fill="#44444D" d="M10.398,40.416c3.157,1.823,7.194,0.741,9.017-2.416c1.823-3.157,0.741-7.194-2.416-9.017
	c-3.157-1.823-7.194-0.741-9.017,2.416C6.159,34.557,7.241,38.594,10.398,40.416"/>
<path fill="#44444D" d="M10.398,86.366c-3.157,1.822-4.239,5.859-2.416,9.017c1.823,3.157,5.86,4.238,9.017,2.416
	c3.157-1.824,4.239-5.86,2.416-9.017C17.592,85.624,13.555,84.543,10.398,86.366"/>
<path fill="#44444D" d="M38.002,107.368c-3.157-1.822-7.194-0.74-9.017,2.417c-1.823,3.156-0.741,7.194,2.416,9.017
	s7.194,0.741,9.017-2.416C42.241,113.228,41.159,109.191,38.002,107.368"/>
<path fill="#44444D" d="M88.782,107.368c-3.157,1.823-4.239,5.86-2.416,9.018c1.823,3.157,5.86,4.239,9.018,2.416
	c3.156-1.823,4.238-5.861,2.415-9.017C95.977,106.628,91.94,105.546,88.782,107.368"/>
<path fill="#44444D" d="M116.387,86.366c-3.157-1.823-7.195-0.742-9.017,2.416c-1.823,3.157-0.742,7.193,2.416,9.017
	c3.157,1.822,7.194,0.741,9.017-2.416C120.626,92.225,119.544,88.188,116.387,86.366"/>
<path fill="#44444D" d="M116.387,40.416c3.157-1.822,4.239-5.859,2.416-9.017c-1.823-3.157-5.86-4.239-9.017-2.416
	c-3.158,1.823-4.239,5.86-2.416,9.017C109.192,41.157,113.23,42.239,116.387,40.416"/>
<path fill="#44444D" d="M95.384,7.98c-3.158-1.822-7.195-0.74-9.018,2.417c-1.822,3.157-0.74,7.194,2.416,9.017
	c3.158,1.823,7.195,0.741,9.018-2.416C99.623,13.84,98.541,9.803,95.384,7.98"/>
<path fill="#44444D" d="M69.402,60.904v-23.6c0-3.318-2.69-6.384-6.01-6.384s-6.01,3.066-6.01,6.384v26.089
	c0,0.776,0.159,1.512,0.427,2.193c0.011,0.03,0.016,0.06,0.028,0.09c0.305,0.742,0.751,1.412,1.309,1.97L69.41,77.91
	c1.174,1.174,2.712,1.761,4.249,1.761c1.538,0,3.076-0.587,4.25-1.761c2.347-2.348,2.347-6.151,0-8.499L69.402,60.904z"/>
<path fill="#44444D" d="M63.392,23.669c3.32,0,6.01-2.692,6.01-6.011V6.01c0-3.319-2.69-6.01-6.01-6.01
	c-3.32,0-6.01,2.691-6.01,6.01v11.648C57.382,20.977,60.072,23.669,63.392,23.669"/>
<path fill="#44444D" d="M17.661,57.382H6.01c-3.32,0-6.01,2.692-6.01,6.011c0,3.317,2.69,6.01,6.01,6.01h11.651
	c3.32,0,6.01-2.693,6.01-6.01C23.671,60.074,20.981,57.382,17.661,57.382"/>
<path fill="#44444D" d="M63.392,103.112c-3.32,0-6.01,2.692-6.01,6.011v11.648c0,3.319,2.69,6.01,6.01,6.01
	c3.32,0,6.01-2.691,6.01-6.01v-11.648C69.402,105.804,66.712,103.112,63.392,103.112"/>
<path fill="#44444D" d="M120.774,57.382h-11.65c-3.32,0-6.011,2.692-6.011,6.011c0,3.317,2.691,6.01,6.011,6.01h11.65
	c3.32,0,6.01-2.693,6.01-6.01C126.784,60.074,124.094,57.382,120.774,57.382"/>
</svg>
